…
## Installation

``` r
# install.packages("devtools")
devtools::install_github("mrchypark/krwifi")
```

## Example

This is a basic example which shows you how to solve a common problem:

``` r
library(krwifi)
wifi
#> # A tibble: 21,473 x 17
#>    설치장소명 설치장소상세 설치시도명 설치시군구명 설치시설구분
#>    <chr>      <chr>        <chr>      <chr>        <chr>       
#>  1 청송군청   민원실       경상북도   청송군       관공서      
#>  2 청송군농업기술센터~ "\"1층, 2층, ~ 경상북도   청송군       관공서      
#>  3 청송읍사무소~ 민원실       경상북도   청송군       관공서      
#>  4 부동면사무소~ 민원실       경상북도   청송군       관공서      
#>  5 부남면사무소~ 민원실       경상북도   청송군       관공서      
#>  6 현동면사무소~ 민원실       경상북도   청송군       관공서      
#>  7 현서면사무소~ 민원실       경상북도   청송군       관공서      
#>  8 안덕면사무소~ 민원실       경상북도   청송군       관공서      
#>  9 파천면사무소~ 민원실       경상북도   청송군       관공서      
#> 10 진보면사무소~ 민원실       경상북도   청송군       관공서      
#> # ... with 21,463 more rows, and 12 more variables: 서비스제공사명 <chr>,
#> #   와이파이SSID <chr>, 설치년월 <chr>, 소재지도로명주소 <chr>,
#> #   소재지지번주소 <chr>, 관리기관명 <chr>, 관리기관전화번호 <chr>,
#> #   위도 <chr>, 경도 <chr>, 데이터기준일자 <chr>, 제공기관코드 <chr>,
#> #   제공기관명 <chr>
…
